Fisher’s Exact Test
…
7 Contingency Table with tbl_summary Function

This is a table that shows the distribution of a variable in the rows and columns. Sometimes referred to as a 2x2 table. They are useful in summarizing categorical variables.

We want to create a contingency table of the demographic variable by living_stable to Check the distribution of the frequency count of variables (is_living_stable, Yes = stable and No = unstable has_schizophrenia, Yes = schizophrenia diagnosed and No = no schizophrenia).

# creating new data frame keeping only the categorical variable of interest for our  contingency table in the next section

finalmodel_df <- select(model_df, schizophrenia, Living_stable)

finalmodel_df

# A tibble: 3,560 × 2
   schizophrenia Living_stable
   <fct>         <fct>        
 1 No            Yes          
 2 No            Yes          
 3 No            Yes          
 4 No            Yes          
 5 Missing       Missing      
 6 No            Yes          
 7 No            Yes          
 8 Missing       Missing      
 9 No            Yes          
10 Yes           Yes          
# ℹ 3,550 more rows
…
