An R Cookbook for Public Health - 11 Cochran’s Q Test
…
txSuccess_df

# A tibble: 3,560 × 5
     who udsPattern                startAbs midAbs endAbs
   <int> <chr>                     <lgl>    <lgl>  <lgl> 
 1     1 ooooooooooooooo           FALSE    FALSE  FALSE 
 2     2 ----oo-o-o-o+o            TRUE     FALSE  FALSE 
 3     3 o-ooo-ooooooooooooooooo   FALSE    FALSE  FALSE 
 4     4 --------------------o-oo  TRUE     TRUE   TRUE  
 5     5 ooooooooooooooo           FALSE    FALSE  FALSE 
 6     6 -ooooooooooooo            FALSE    FALSE  FALSE 
 7     7 ----oooooooooooooooooooo  TRUE     FALSE  FALSE 
 8     8 ooooooooooooooooooooooooo FALSE    FALSE  FALSE 
 9     9 oooooooooooooooooooooo    FALSE    FALSE  FALSE 
10    10 --o--*++o-++++++++o+-o    TRUE     FALSE  FALSE 
# ℹ 3,550 more rows
…
txSuccessLong_df

# A tibble: 10,680 × 3
     who when  abstinent
   <int> <ord> <lgl>    
 1     1 start FALSE    
 2     1 mid   FALSE    
 3     1 end   FALSE    
 4     2 start TRUE     
 5     2 mid   FALSE    
 6     2 end   FALSE    
 7     3 start FALSE    
 8     3 mid   FALSE    
 9     3 end   FALSE    
10     4 start TRUE     
# ℹ 10,670 more rows
…
