An R Cookbook for Public Health - 11 The Chi Squared Goodness-of-Fit Test
…
bins_df

# A tibble: 1,972 × 4
   original partition    lower upper
      <int> <fct>        <dbl> <dbl>
 1       16 (15.3,18.9]  15.3  18.9 
 2        6 (4.58,8.17]   4.58  8.17
 3       16 (15.3,18.9]  15.3  18.9 
 4        9 (8.17,11.8]   8.17 11.8 
 5       16 (15.3,18.9]  15.3  18.9 
 6       20 (18.9,22.5]  18.9  22.5 
 7        5 (4.58,8.17]   4.58  8.17
 8        3 (0.957,4.58]  0     4.58
 9        2 (0.957,4.58]  0     4.58
10        5 (4.58,8.17]   4.58  8.17
# ℹ 1,962 more rows
…
