An R Cookbook for Public Health - 13 Fisher’s Exact Test
…
model_df 

# A tibble: 3,560 × 9
     age race  education    is_male marital   is_living_stable has_schizophrenia
   <dbl> <fct> <fct>        <fct>   <fct>     <fct>            <fct>            
 1    43 White More than HS Yes     Married … Yes              No               
 2    30 White More than HS No      Never ma… Yes              No               
 3    23 Black More than HS No      Never ma… Yes              No               
 4    19 White More than HS Yes     Never ma… Yes              No               
 5    31 White <NA>         No      <NA>      <NA>             <NA>             
 6    43 White HS/GED       Yes     Married … Yes              No               
 7    33 White More than HS No      Never ma… Yes              No               
 8    44 White <NA>         Yes     <NA>      <NA>             <NA>             
 9    25 Black HS/GED       No      Never ma… Yes              No               
10    29 Other More than HS No      Never ma… Yes              Yes              
# ℹ 3,550 more rows
# ℹ 2 more variables: Living_stable <fct>, schizophrenia <fct>
…
