An R Cookbook for Public Health - 34 Generalized Linear Models: Negative Binomial
…
# the diagnosis columns for each disease and `who` column are no longer needed
#   after the join and thus are removed
dxPred2_df <- dxPred_df %>% 
  dplyr::select(
    -(has_schizophrenia:has_epilepsy),
    -who
  )

print(dxPred2_df)

# A tibble: 3,080 × 14
   nComorbidDx   age is_hispanic race  job    is_living_stable education marital
         <int> <dbl> <fct>       <fct> <fct>  <fct>            <fct>     <fct>  
 1           0    43 No          White Full … Yes              More tha… Marrie…
 2           1    30 No          White Full … Yes              More tha… Never …
 3           0    23 No          Black Full … Yes              More tha… Never …
 4           2    19 No          White Stude… Yes              More tha… Never …
 5           0    43 No          White Full … Yes              HS/GED    Marrie…
 6           1    33 No          White Part … Yes              More tha… Never …
 7           0    25 Yes         Black Part … Yes              HS/GED    Never …
 8           4    29 No          Other Part … Yes              More tha… Never …
 9           2    40 No          White <NA>   <NA>             <NA>      <NA>   
10           0    19 No          White <NA>   <NA>             <NA>      <NA>   
# ℹ 3,070 more rows
# ℹ 6 more variables: is_male <fct>, cocaine <dbl>, heroin <dbl>,
#   speedball <dbl>, opioid <dbl>, speed <dbl>
…
If I use all features, I will be left with 567 out of 3080 rows with complete cases. I can increase the number of complete rows by removing incomplete predictor columns. The features job, is_living_stable, education, and marital from the demographics dataset are all missing data on about half of the participants (N = 3080) and should therefore be removed from the model. Furthermore, about one-third of participants are missing data on their drug usage from the rbs dataset. I will also remove speedball and speed as they are 27% missing.

We will use cor() to create a correlation matrix of the continuous independent variables to investigate possible multicolinearity.

# remove features missing > 20% of observations
dxPred3_df <- dxPred2_df %>% 
  dplyr::select(
    -(job:marital),
    - speed,
    - speedball
  )

print(dxPred3_df)

# A tibble: 3,080 × 8
   nComorbidDx   age is_hispanic race  is_male cocaine heroin opioid
         <int> <dbl> <fct>       <fct> <fct>     <dbl>  <dbl>  <dbl>
 1           0    43 No          White Yes           0      0     30
 2           1    30 No          White No            0      0     30
 3           0    23 No          Black No            4     30      4
 4           2    19 No          White Yes           0      4     30
 5           0    43 No          White Yes           0      0     30
 6           1    33 No          White No            4      4     30
 7           0    25 Yes         Black No            4      4      4
 8           4    29 No          Other No           30     30      3
 9           2    40 No          White No            2     30      1
10           0    19 No          White Yes           1     30      0
# ℹ 3,070 more rows
…
