An R Cookbook for Public Health - 17 Chi-Squared Independence
…
The openintro package contains data sets used in open-source textbooks such as Introduction to Modern Statistics (1st Ed). (mineçetinkaya-rundel2023?) It is often used for teaching purposes and create examples for how to run various test statistics and functions using R. This package can be installed using the install.packages("openintro") feature. You can also find more information about this package here.

For the purposes of this presentations we will be using the diabetes2 dataset found within this package.

In the data there are 699 diabetes patients. Each of the 699 patients in the experiment were randomized to one of the following treatments: (1) continued treatment with metformin (coded as met), (2) formin combined with rosiglitazone (coded as rosi), or or (3) a lifestyle-intervention program (coded as lifestyle).Three treatments were compared to test their relative efficacy (effectiveness) in treating Type 2 Diabetes in patients aged 10-17 who were being treated with metformin. The primary outcome was lack of glycemic control (or not); lacking glycemic control means the patient still needed insulin, which is not the preferred outcome for a patient.(todaystudygroup2012?)

str(diabetes2)

tibble [699 × 2] (S3: tbl_df/tbl/data.frame)
 $ treatment: Factor w/ 3 levels "lifestyle","met",..: 2 3 3 1 2 1 1 3 3 2 ...
 $ outcome  : Factor w/ 2 levels "failure","success": 2 1 2 2 2 2 2 2 2 1 ...

print(diabetes2)

# A tibble: 699 × 2
   treatment outcome
 * <fct>     <fct>  
 1 met       success
 2 rosi      failure
 3 rosi      success
 4 lifestyle success
 5 met       success
 6 lifestyle success
 7 lifestyle success
 8 rosi      success
 9 rosi      success
10 met       failure
# ℹ 689 more rows
…
